<?xml version="1.0" standalone="no"?>
<!DOCTYPE svg PUBLIC "-//W3C//DTD SVG 1.1//EN" "http://www.w3.org/Graphics/SVG/1.1/DTD/svg11.dtd" >
<!--
2013-9-30: Created.
-->
<svg>
<metadata>
Created by iconfont
</metadata>
<defs>

<font id="iconfont" horiz-adv-x="1024" >
  <font-face
    font-family="iconfont"
    font-weight="500"
    font-stretch="normal"
    units-per-em="1024"
    ascent="896"
    descent="-128"
  />
    <missing-glyph />
    
    <glyph glyph-name="x" unicode="x" horiz-adv-x="1001"
d="M281 543q-27 -1 -53 -1h-83q-18 0 -36.5 -6t-32.5 -18.5t-23 -32t-9 -45.5v-76h912v41q0 16 -0.5 30t-0.5 18q0 13 -5 29t-17 29.5t-31.5 22.5t-49.5 9h-133v-97h-438v97zM955 310v-52q0 -23 0.5 -52t0.5 -58t-10.5 -47.5t-26 -30t-33 -16t-31.5 -4.5q-14 -1 -29.5 -0.5
t-29.5 0.5h-32l-45 128h-439l-44 -128h-29h-34q-20 0 -45 1q-25 0 -41 9.5t-25.5 23t-13.5 29.5t-4 30v167h911zM163 247q-12 0 -21 -8.5t-9 -21.5t9 -21.5t21 -8.5q13 0 22 8.5t9 21.5t-9 21.5t-22 8.5zM316 123q-8 -26 -14 -48q-5 -19 -10.5 -37t-7.5 -25t-3 -15t1 -14.5
t9.5 -10.5t21.5 -4h37h67h81h80h64h36q23 0 34 12t2 38q-5 13 -9.5 30.5t-9.5 34.5q-5 19 -11 39h-368zM336 498v228q0 11 2.5 23t10 21.5t20.5 15.5t34 6h188q31 0 51.5 -14.5t20.5 -52.5v-227h-327z" />
    

    
    <glyph glyph-name="select-topic" unicode="&#58938;" d="M865.10059813 697.03576219L354.898355 697.03576219c0 0-34.92895781 61.63437187-71.16646875 61.63437187L119.41928938 758.67013406c-14.44492594 0-26.16338156-14.17247063-26.16338157-31.571235l0-47.56551094c0-17.35175531 11.71845469-31.52326687 26.16338156-31.52326687l746.64161719 0c14.44588594 0 24.58141406 7.04450344 24.58141406 24.39625969l0.06331688-0.35975625C890.7056375 689.39838 879.54648313 697.03576219 865.10059813 697.03576219zM930.51288781 82.81796155999996c0-17.35175531-11.71941469-31.52326687-26.16434062-31.52326687L119.41928938 51.294693749999965c-14.44492594 0-26.16338156 14.17151156-26.16338157 31.52326687L93.25590875 587.52600938c0 17.35175531 11.71845469 31.52422688 26.16338156 31.52422687l784.92925782 0c14.44588594 0 26.16434062-14.17247063 26.16434062-31.52422688L930.51288781 82.81796155999996zM361.71165594 372.89648812999997l300.2984775 0 0-75.49601344-300.2984775 0 0 75.49601343ZM474.18100156 485.32170375l75.44996532 0-1e-8-300.29943656-75.44996531 0 0 300.29943656Z"  horiz-adv-x="1024" />

    
    <glyph glyph-name="radio" unicode="&#58963;" d="M512.53627625 803.98021313c-231.66756937 0-419.47079906-187.80418875-419.47079906-419.47079907 0-231.66756937 187.80322969-419.47079906 419.47079906-419.47079906 231.66661031 0 419.47079906 187.80322969 419.47079906 419.47079906C932.00803438 616.17602437 744.20288656 803.98021313 512.53627625 803.98021313zM783.34338875 499.03848375L458.27354656 173.98974655999996c-8.19284531-8.19284531-18.92508844-12.2892675-29.65829156-12.2892675-10.73224313 0-21.46544625 4.09642219-29.65829156 12.2892675L231.18974938 341.73681468999996c-16.38569062 16.36554375-16.38569062 42.92993344-1e-8 59.31562406 16.38569062 16.38569062 42.92993344 16.38569062 59.31562407 0l138.10988156-138.08973563 295.41155063 295.39140469c16.38569062 16.38569062 42.92993344 16.38569062 59.31562406 0C799.72812031 541.9684171900001 799.72812031 515.4241743800001 783.34338875 499.03848375z"  horiz-adv-x="1024" />

    
    <glyph glyph-name="add-topic" unicode="&#58902;" d="M204.9696875 860.788125l373.0265625 0c0.1115625-41.281875-0.178125-82.56375 0.1509375-123.8465625 1.6125-43.468125 22.554375-90.0196875 63.91125-108.823125 13.8796875-6.208125 29.3053125-7.3621875 44.319375-7.183125 44.13375-0.01875 88.2571875 0.075 132.3890625-0.046875 0.075-79.2440625 0.065625-158.4984375 0-237.7509375-43.205625 4.3978125-87.6928125 0.5915625-128.5171875-14.818125-54.391875-20.1721875-101.91-58.29375-133.3359375-107.0784375-93.46125-0.178125-186.9215625 0.046875-280.381875-0.1115625-18.82125 0.140625-36.7528125-9.9121875-47.7346875-24.96375-12.19125-16.0265625-14.6203125-38.40375-7.5684375-57.0853125 8.7675-22.03875 31.4634375-37.99875 55.3584375-37.73625 79.355625-0.121875 158.713125-0.01875 238.06875-0.046875-5.58-63.4903125 10.0153125-129.0225 46.9640625-181.3153125-112.835625-0.01875-225.6721875-0.01875-338.5171875 0-15.2203125-0.1875-30 4.6509375-43.456875 11.450625-26.90625 13.711875-50.2471875 34.6790625-66.1903125 60.375-10.2590625 15.8221875-16.2525 34.483125-16.036875 53.416875-0.0365625 215.064375 0.0103125 430.130625-0.01875 645.2053125-1.33125 36.470625 17.04 71.2078125 42.4725 96.3590625 17.7890625 17.20875 39.8559375 31.6875 65.0925 33.99375M267.53 500.2153125c-20.285625-3.0103125-38.2153125-17.5265625-46.055625-36.376875-7.6425-19.4409375-4.7728125-43.0265625 8.5903125-59.334375 11.1965625-14.4703125 29.034375-23.6615625 47.4534375-23.3709375 120.328125-0.0365625 240.6675-0.075 361.0059375 0.01875 28.63125-0.2915625 55.0115625 23.0596875 58.760625 51.3159375 6.53625 34.3434375-23.16375 68.788125-57.815625 68.48625-118.7821875 0.16875-237.5634375 0.01875-356.3446875 0.075-5.2153125 0.0103125-10.4475 0.0103125-15.5953125-0.8165625L267.53 500.2153125zM638.504375 860.788125l9.5371875 0c25.1803125-4.5009375 43.9828125-23.5115625 63.2165625-38.881875 33.38625-28.95 68.3653125-57.009375 95.2153125-92.4196875 10.5965625-13.3171875 13.9265625-30.43125 12.294375-47.0878125-47.24625-0.103125-94.4925-0.075-141.7303125-0.0103125-7.9415625-0.178125-15.1734375 4.2665625-19.8525 10.4559375-11.6390625 13.7953125-17.6953125 31.8946875-18.6346875 49.768125-0.1115625 39.3965625-0.01875 78.78375-0.046875 118.171875L638.504375 860.788125zM774.9296 177.04319999999996c0 0 177.4176-13.824 177.7392-144.8784l0 0c-0.312 131.0592-177.7344 144.8832-177.7344 144.8832l-0.1584 62.2032L621.2 136.03200000000004l153.5712 103.2144L774.9296 177.04319999999996zM898.2368 81.64800000000002c41.9808-17.928 52.3296-43.0608 54.1104-48.4272C950.5664 38.59680000000003 940.208 63.72479999999996 898.2368 81.64800000000002zM795.8144 326.64c-120.4992 0-218.2656-94.5792-218.2656-211.2768S675.224-96 795.8144-96s218.2656 94.6656 218.2656 211.4544C1014.08 232.06079999999997 916.4048 326.64 795.8144 326.64zM952.3472 33.220800000000054c-1.7808 5.3664-12.1296 30.4992-54.1104 48.4272-0.5088 0.216-0.9888 0.4368-1.5072 0.6528-0.3312 0.1392-0.6912 0.2688-1.0272 0.408-1.2816 0.5232-2.5728 1.0464-3.912 1.5552-2.6352 1.0032-5.424 1.9632-8.2896 2.8992-4.4928 1.4688-9.2352 2.8656-14.3184 4.1472-7.608 1.9152-15.8976 3.5952-24.9264 4.968-1.7472 0.264-3.6096 0.5184-5.6016 0.7584-0.9936 0.12-2.0208 0.2352-3.0816 0.3456-13.7664 1.4448-33.0528 2.2608-60.5088 2.2944l0.1632-67.2624 0 0-154.032 103.6272 153.576 103.2192 0.1584-62.2032c0 0 177.4224-13.824 177.7344-144.8832l0 0c0 0 0-0.0048 0-0.0048C952.6688 32.15999999999997 952.568 32.54880000000003 952.3472 33.220800000000054z"  horiz-adv-x="1095" />

    
    <glyph glyph-name="classify" unicode="&#58885;" d="M880.142591 625.9525639999999L303.115576 625.9525639999999c-8.184403 0-14.793938-7.139607-14.793938-15.963577l0-31.927153c0-8.822946 6.609535-15.963577 14.793938-15.963577l577.027016 0c8.184403 0 14.793938 7.140631 14.793938 15.963577l0 31.927153C894.937552 618.8119340000001 888.326994 625.9525639999999 880.142591 625.9525639999999zM195.20589 633.934353l-47.89073 0c-8.823969 0-15.963577-7.139607-15.963577-15.963577l0-47.89073c0-8.822946 7.139607-15.963577 15.963577-15.963577l47.89073 0c8.823969 0 15.963577 7.140631 15.963577 15.963577l0 47.89073C211.169467 626.793722 204.02986 633.934353 195.20589 633.934353zM880.142591 417.084513L303.115576 417.084513c-8.184403 0-14.793938-7.140631-14.793938-15.963577l0-31.927153c0-8.822946 6.609535-15.963577 14.793938-15.963577l577.027016 0c8.184403 0 14.793938 7.140631 14.793938 15.963577l0 31.927153C894.937552 409.943882 888.326994 417.084513 880.142591 417.084513zM195.20589 425.066301l-47.89073 0c-8.823969 0-15.963577-7.140631-15.963577-15.963577l0-47.89073c0-8.822946 7.139607-15.963577 15.963577-15.963577l47.89073 0c8.823969 0 15.963577 7.140631 15.963577 15.963577l0 47.89073C211.169467 417.92567 204.02986 425.066301 195.20589 425.066301zM880.142591 208.23385699999994L303.115576 208.23385699999994c-8.184403 0-14.793938-7.139607-14.793938-15.963577l0-31.927153c0-8.822946 6.609535-15.963577 14.793938-15.963577l577.027016 0c8.184403 0 14.793938 7.140631 14.793938 15.963577l0 31.927153C894.937552 201.09322699999996 888.326994 208.23385699999994 880.142591 208.23385699999994zM195.20589 216.215646l-47.89073 0c-8.823969 0-15.963577-7.139607-15.963577-15.963577l0-47.89073c0-8.822946 7.139607-15.963577 15.963577-15.963577l47.89073 0c8.823969 0 15.963577 7.140631 15.963577 15.963577l0 47.89073C211.169467 209.075015 204.02986 216.215646 195.20589 216.215646z"  horiz-adv-x="1024" />

    
    <glyph glyph-name="add" unicode="&#59065;" d="M895.531061 410.211464 535.640488 410.211464 535.640488 770.102037c0 13.5716-11.001648 24.573248-24.573248 24.573248s-24.573248-11.001648-24.573248-24.573248l0-359.890572L126.604444 410.211464c-13.5716 0-24.573248-11.001648-24.573248-24.573248s11.001648-24.573248 24.573248-24.573248l359.889548 0 0-359.890572c0-13.5716 11.001648-24.573248 24.573248-24.573248s24.573248 11.001648 24.573248 24.573248L535.640488 361.065993l359.890572 0c13.5716 0 24.573248 11.001648 24.573248 24.573248S909.102661 410.211464 895.531061 410.211464z"  horiz-adv-x="1025" />

    
    <glyph glyph-name="down" unicode="&#59113;" d="M163.446154 620.307692h697.107692c19.692308 0 33.476923-25.6 17.723077-43.323077L537.6 159.507692c-11.815385-15.753846-37.415385-15.753846-49.230769 0L143.753846 576.984615c-13.784615 17.723077-1.969231 43.323077 19.692308 43.323077z"  horiz-adv-x="1024" />

    
    <glyph glyph-name="check-box" unicode="&#58943;" d="M810.666667 768H213.333333c-46.933333 0-85.333333-38.4-85.333333-85.333333v-597.333334c0-46.933333 38.4-85.333333 85.333333-85.333333h597.333334c46.933333 0 85.333333 38.4 85.333333 85.333333V682.666667c0 46.933333-38.4 85.333333-85.333333 85.333333z m-384-597.333333l-213.333334 213.333333 59.733334 59.733333 153.6-153.6 324.266666 324.266667L810.666667 554.666667l-384-384z"  horiz-adv-x="1024" />

    
    <glyph glyph-name="file" unicode="&#59543;" d="M725.504 128C725.290667 128 725.333333 725.290667 725.333333 725.290667L640 725.333333V768h85.376C748.928 768 768 749.013333 768 725.290667v-597.248A42.666667 42.666667 0 0 0 725.504 85.33333300000004H170.496C147.029333 85.33333300000004 128 104.32000000000005 128 128.04266700000005V725.290667C128 748.885333 147.157333 768 170.624 768H256v-42.666667H170.624L170.666667 128.04266700000005 725.504 128z m124.949333 469.333333H810.666667v42.666667h42.666666c23.573333 0 42.666667-18.986667 42.666667-42.709333v-597.248A42.666667 42.666667 0 0 0 853.504-42.66666699999996H298.496A42.453333 42.453333 0 0 0 256 0v42.666667h42.666667v-42.666667l554.666666 0.042667 0.021334 228.416c-0.042667 168.597333-0.021333 368.853333-0.021334 368.853333L850.453333 597.333333zM298.666667 554.666667h298.666666v-42.666667H298.666667v42.666667z m0-128h213.333333v-42.666667H298.666667v42.666667z m0 341.376C298.666667 791.594667 317.802667 810.666667 341.461333 810.666667h213.077334C578.176 810.666667 597.333333 791.509333 597.333333 768.0426669999999v-42.752A42.688 42.688 0 0 0 554.538667 682.666667h-213.077334A42.752 42.752 0 0 0 298.666667 725.290667V768.0426669999999z m42.666666-42.752L554.538667 725.333333 554.666667 768.0426669999999 341.461333 768 341.333333 725.290667z"  horiz-adv-x="1024" />

    


  </font>
</defs></svg>
